0a8a 0888 0888 0383 0b8b 0888 0585 0383 0484 0585 0888 0888 0484 1c9c 
0a8a 0888 0888 0383 0b8b 0888 0585 0383 0484 0585 0888 0888 0484 1c9c 
0a8a 0888 0888 0383 0b8b 0888 0585 0383 0484 0585 0888 0888 0484 1c9c 
0a8a 0888 0888 0383 0b8b 0888 0585 0383 0484 0585 0888 0888 0484 1c9c 
0a8a 0888 0888 0383 0b8b 0888 0585 0383 0484 0585 0888 0888 0484 1c9c 
0a8a 0888 0888 0383 0b8b 0888 0585 0383 0484 0585 0888 0888 0484 1c9c 
0a8a 0888 0888 0383 0b8b 0888 0585 0383 0484 0585 0888 0888 0484 1c9c 
0a8a 0888 0888 0383 0b8b 0888 0585 0383 0484 0585 0888 0888 0484 1c9c 
0a8a 0888 0888 0383 0b8b 0888 0585 0383 0484 0585 0888 0888 0484 1c9c 
0a8a 0888 0888 0383 0b8b 0888 0585 0383 0484 0585 0888 0888 0484 1c9c 
0a8a 0888 0888 0383 0b8b 0888 0585 0383 0484 0585 0888 0888 0484 1c9c 
0a8a 0888 0888 0383 0b8b 0888 0585 0383 0484 0585 0888 0888 0484 1c9c 
0a8a 0888 0888 0383 0b8b 0888 0585 0383 0484 0585 0888 0888 0484 1c9c 
0a8a 0888 0888 0383 0b8b 0888 0585 0383 0484 0585 0888 0888 0484 1c9c 
0a8a 0888 0888 0383 0b8b 0888 0585 0383 0484 0585 0888 0888 0484 1c9c 
0a8a 0888 0888 0383 0b8b 0888 0585 0383 0484 0585 0888 0888 0484 1c9c 
0a8a 0888 0888 0383 0b8b 0888 0585 0383 0484 0585 0888 0888 0484 1c9c 
0a8a 0888 0888 0383 0b8b 0888 0585 0383 0484 0585 0888 0888 0484 1c9c 
0a8a 0888 0888 0383 0b8b 0888 0585 0383 0484 0585 0888 0888 0484 1c9c 
0a8a 0888 0888 0383 0b8b 0888 0585 0383 0484 0585 0888 0888 0484 1c9c 
0a8a 0888 0888 0383 0b8b 0888 0585 0383 0484 0585 0888 0888 0484 1c9c 
0a8a 0888 0888 0383 0b8b 0888 0585 0383 0484 0585 0888 0888 0484 1c9c 
0a8a 0888 0888 0383 0b8b 0888 0585 0383 0484 0585 0888 0888 0484 1c9c 
0a8a 0888 0888 0383 0b8b 0888 0585 0383 0484 0585 0888 0888 0484 1c9c 
0a8a 0888 0888 0383 0b8b 0888 0585 0383 0484 0585 0888 0888 0484 1c9c 
0a8a 0888 0888 0383 0b8b 0888 0585 0383 0484 0585 0888 0888 0484 1c9c 
0a8a 0888 0888 0383 0b8b 0888 0585 0383 0484 0585 0888 0888 0484 1c9c 
0a8a 0888 0888 0383 0b8b 0888 0585 0383 0484 0585 0888 0888 0484 1c9c 
0a8a 0888 0888 0383 0b8b 0888 0585 0383 0484 0585 0888 0888 0484 1c9c 
0a8a 0888 0888 0383 0b8b 0888 0585 0383 0484 0585 0888 0888 0484 1c9c 
